<?xml version="1.0" encoding="UTF-8" standalone="no"?>
<svg width="31px" height="31px" viewBox="0 0 31 31" version="1.1" xmlns="http://www.w3.org/2000/svg" xmlns:xlink="http://www.w3.org/1999/xlink" xmlns:sketch="http://www.bohemiancoding.com/sketch/ns">
    <!-- Generator: Sketch 3.0.4 (8054) - http://www.bohemiancoding.com/sketch -->
    <title>bookmark</title>
    <desc>Created with Sketch.</desc>
    <defs></defs>
    <g id="Svgs" stroke="none" stroke-width="1" fill="none" fill-rule="evenodd" sketch:type="MSPage">
        <g id="bookmark" sketch:type="MSLayerGroup">
            <circle id="iconBorder" stroke-opacity="0" stroke="#444444" sketch:type="MSShapeGroup" cx="15.2263636" cy="15.2263636" r="15.2263636"></circle>
            <path d="M10.0690909,7.74272727 L20.0181818,7.74272727 C20.0181818,7.74272727 20.6618182,7.69090909 20.6618182,8.54090909 L20.6618182,22.0454545 C20.6618182,22.0454545 20.4036364,22.6381818 19.7090909,22.0454545 C19.0136364,21.4527273 16.0236364,18.6954545 16.0236364,18.6954545 C16.0236364,18.6954545 14.89,18.0509091 14.0645455,18.7463636 C13.24,19.4427273 10.3272727,22.1481818 10.3272727,22.1481818 C10.3272727,22.1481818 9.42636364,22.6890909 9.42636364,21.9163636 L9.42636364,8.23090909 C9.42636364,8.23090909 9.47727273,7.74272727 10.0690909,7.74272727 L10.0690909,7.74272727 Z" id="Bookmark" fill="#FEFEFA" sketch:type="MSShapeGroup"></path>
        </g>
        <g id="Slices" sketch:type="MSLayerGroup" transform="translate(-298.000000, 0.000000)"></g>
    </g>
</svg>