<?xml version="1.0" encoding="UTF-8" standalone="no"?>
<svg width="30px" height="30px" viewBox="0 0 30 30" version="1.1" xmlns="http://www.w3.org/2000/svg" xmlns:xlink="http://www.w3.org/1999/xlink" xmlns:sketch="http://www.bohemiancoding.com/sketch/ns">
    <!-- Generator: Sketch 3.0.4 (8054) - http://www.bohemiancoding.com/sketch -->
    <title>stack</title>
    <desc>Created with Sketch.</desc>
    <defs></defs>
    <g id="Svgs" stroke="none" stroke-width="1" fill="none" fill-rule="evenodd" sketch:type="MSPage">
        <g id="stack" sketch:type="MSLayerGroup">
            <circle id="iconBorder" stroke-opacity="0" stroke="#444444" sketch:type="MSShapeGroup" cx="15" cy="15" r="15"></circle>
            <path d="M20.3952569,13.6890734 C20.3952569,14.8051573 18.1793478,16.048951 15,16.048951 C11.8201383,16.048951 9.60474308,14.8051573 9.60474308,13.6890734 L9.60474308,12.2428322 C10.5270751,13.2490385 12.5947431,13.951049 15,13.951049 C17.4044862,13.951049 19.4729249,13.2490385 20.3952569,12.2428322 L20.3952569,13.6890734 L20.3952569,13.6890734 Z M20.3952569,16.311451 C20.3952569,17.427535 18.1793478,18.6713287 15,18.6713287 C11.8201383,18.6713287 9.60474308,17.427535 9.60474308,16.311451 L9.60474308,14.8652098 C10.5270751,15.8714161 12.5947431,16.5734266 15,16.5734266 C17.4044862,16.5734266 19.4729249,15.8714161 20.3952569,14.8652098 L20.3952569,16.311451 L20.3952569,16.311451 Z M20.3952569,18.4093531 L20.3952569,18.9338287 C20.3952569,20.0499126 18.1793478,21.2937063 15,21.2937063 C11.8201383,21.2937063 9.60474308,20.0499126 9.60474308,18.9338287 L9.60474308,17.4875874 C10.5270751,18.4937937 12.5947431,19.1958042 15,19.1958042 C17.4044862,19.1958042 19.4729249,18.4937937 20.3952569,17.4875874 L20.3952569,18.4093531 L20.3952569,18.4093531 Z M15,8.70629371 C18.1793478,8.70629371 20.3952569,9.95008741 20.3952569,11.0666958 C20.3952569,12.1827797 18.1793478,13.4265734 15,13.4265734 C11.8201383,13.4265734 9.60474308,12.1827797 9.60474308,11.0666958 C9.60474308,9.95008741 11.8201383,8.70629371 15,8.70629371 L15,8.70629371 Z M15,8.18181818 C11.7363834,8.18181818 9.09090909,9.47333916 9.09090909,11.0666958 L9.09090909,18.9338287 C9.09090909,20.5266608 11.7363834,21.8181818 15,21.8181818 C18.2631028,21.8181818 20.9090909,20.5266608 20.9090909,18.9338287 L20.9090909,11.0666958 C20.9090909,9.47333916 18.2631028,8.18181818 15,8.18181818 L15,8.18181818 Z" id="Stack" fill="#FEFEFA" sketch:type="MSShapeGroup"></path>
        </g>
        <g id="Slices" sketch:type="MSLayerGroup" transform="translate(-446.000000, -370.000000)"></g>
    </g>
</svg>