<?xml version="1.0" encoding="UTF-8" standalone="no"?>
<svg width="31px" height="31px" viewBox="0 0 31 31" version="1.1" xmlns="http://www.w3.org/2000/svg" xmlns:xlink="http://www.w3.org/1999/xlink" xmlns:sketch="http://www.bohemiancoding.com/sketch/ns">
    <!-- Generator: Sketch 3.0.4 (8054) - http://www.bohemiancoding.com/sketch -->
    <title>css</title>
    <desc>Created with Sketch.</desc>
    <defs></defs>
    <g id="Svgs" stroke="none" stroke-width="1" fill="none" fill-rule="evenodd" sketch:type="MSPage">
        <g id="css" sketch:type="MSLayerGroup">
            <circle id="iconBorder" stroke-opacity="0" stroke="#444444" sketch:type="MSShapeGroup" cx="15.2263636" cy="15.2263636" r="15.2263636"></circle>
            <path d="M7.95099432,21.5198864 L7.38991477,21.5198864 C6.70809318,21.5198864 6.21685756,21.3364128 5.91619318,20.9694602 C5.6155288,20.6025076 5.46519886,19.92188 5.46519886,18.9275568 L5.46519886,18.2457386 C5.46519886,17.3603175 5.34919624,16.7436097 5.1171875,16.3955966 C4.88517876,16.0475835 4.51112947,15.8735795 3.99502841,15.8735795 L3.99502841,14.7159091 C4.51112947,14.7159091 4.88517876,14.5419051 5.1171875,14.193892 C5.34919624,13.8458789 5.46519886,13.2291711 5.46519886,12.34375 L5.46519886,11.6548295 C5.46519886,10.6652413 5.6155288,9.986981 5.91619318,9.62002841 C6.21685756,9.25307582 6.70809318,9.06960227 7.38991477,9.06960227 L7.95099432,9.06960227 L7.95099432,10 L7.73792614,10 C7.29758303,10 6.99100465,10.094696 6.81818182,10.2840909 C6.64535898,10.4734858 6.55894886,10.9256593 6.55894886,11.640625 L6.55894886,12.0951705 C6.55894886,13.075289 6.44531364,13.7973462 6.21803977,14.2613636 C5.99076591,14.7253811 5.60487962,15.0686542 5.06036932,15.2911932 C5.60487962,15.518467 5.99076591,15.8641075 6.21803977,16.328125 C6.44531364,16.7921425 6.55894886,17.5141996 6.55894886,18.4943182 L6.55894886,18.9488636 C6.55894886,19.6638293 6.64535898,20.1160028 6.81818182,20.3053977 C6.99100465,20.4947926 7.29758303,20.5894886 7.73792614,20.5894886 L7.95099432,20.5894886 L7.95099432,21.5198864 Z M17.4538352,17.4644886 C17.7047835,17.4644886 17.9154821,17.5497151 18.0859375,17.7201705 C18.2563929,17.8906259 18.3416193,18.1013245 18.3416193,18.3522727 C18.3416193,18.6079558 18.2552092,18.8269404 18.0823864,19.009233 C17.9095635,19.1915255 17.7000486,19.2826705 17.4538352,19.2826705 C17.2123567,19.2826705 17.0063929,19.1915255 16.8359375,19.009233 C16.6654821,18.8269404 16.5802557,18.6079558 16.5802557,18.3522727 C16.5802557,18.0965896 16.6642984,17.8847073 16.8323864,17.7166193 C17.0004743,17.5485314 17.2076219,17.4644886 17.4538352,17.4644886 Z M14.556108,17.4644886 C14.8070562,17.4644886 15.0177548,17.5497151 15.1882102,17.7201705 C15.3586656,17.8906259 15.443892,18.1013245 15.443892,18.3522727 C15.443892,18.6079558 15.3574819,18.8269404 15.1846591,19.009233 C15.0118363,19.1915255 14.8023213,19.2826705 14.556108,19.2826705 C14.3146295,19.2826705 14.1098493,19.1915255 13.9417614,19.009233 C13.7736734,18.8269404 13.6896307,18.6079558 13.6896307,18.3522727 C13.6896307,18.0965896 13.7724897,17.8847073 13.9382102,17.7166193 C14.1039308,17.5485314 14.3098946,17.4644886 14.556108,17.4644886 Z M11.6228693,17.4644886 C11.8690827,17.4644886 12.0785976,17.5497151 12.2514205,17.7201705 C12.4242433,17.8906259 12.5106534,18.1013245 12.5106534,18.3522727 C12.5106534,18.6079558 12.4242433,18.8269404 12.2514205,19.009233 C12.0785976,19.1915255 11.8690827,19.2826705 11.6228693,19.2826705 C11.376656,19.2826705 11.1695084,19.1915255 11.0014205,19.009233 C10.8333325,18.8269404 10.7492898,18.6079558 10.7492898,18.3522727 C10.7492898,18.0965896 10.8333325,17.8847073 11.0014205,17.7166193 C11.1695084,17.5485314 11.376656,17.4644886 11.6228693,17.4644886 Z M25.0603693,15.8735795 C24.5490031,15.8735795 24.1761375,16.0475835 23.9417614,16.3955966 C23.7073852,16.7436097 23.5901989,17.3603175 23.5901989,18.2457386 L23.5901989,18.9275568 C23.5901989,19.92188 23.4410526,20.6025076 23.1427557,20.9694602 C22.8444587,21.3364128 22.3544068,21.5198864 21.6725852,21.5198864 L21.1044034,21.5198864 L21.1044034,20.5894886 L21.3245739,20.5894886 C21.764917,20.5894886 22.0714953,20.4947926 22.2443182,20.3053977 C22.417141,20.1160028 22.5035511,19.6638293 22.5035511,18.9488636 L22.5035511,18.4943182 C22.5035511,17.5141996 22.6171864,16.7921425 22.8444602,16.328125 C23.0717341,15.8641075 23.4576204,15.518467 24.0021307,15.2911932 C23.4576204,15.0686542 23.0717341,14.7253811 22.8444602,14.2613636 C22.6171864,13.7973462 22.5035511,13.075289 22.5035511,12.0951705 L22.5035511,11.640625 C22.5035511,10.9256593 22.417141,10.4734858 22.2443182,10.2840909 C22.0714953,10.094696 21.764917,10 21.3245739,10 L21.1044034,10 L21.1044034,9.06960227 L21.6725852,9.06960227 C22.3544068,9.06960227 22.8444587,9.25307582 23.1427557,9.62002841 C23.4410526,9.986981 23.5901989,10.6652413 23.5901989,11.6548295 L23.5901989,12.34375 C23.5901989,13.1439434 23.6943645,13.7393446 23.9026989,14.1299716 C24.1110332,14.5205985 24.4969195,14.7159091 25.0603693,14.7159091 L25.0603693,15.8735795 Z" id="{…}" fill="#343434" sketch:type="MSShapeGroup"></path>
        </g>
        <g id="Slices" sketch:type="MSLayerGroup" transform="translate(-76.000000, -296.000000)"></g>
    </g>
</svg>