<?xml version="1.0" encoding="UTF-8" standalone="no"?>
<svg width="31px" height="31px" viewBox="0 0 31 31" version="1.1" xmlns="http://www.w3.org/2000/svg" xmlns:xlink="http://www.w3.org/1999/xlink" xmlns:sketch="http://www.bohemiancoding.com/sketch/ns">
    <!-- Generator: Sketch 3.0.4 (8054) - http://www.bohemiancoding.com/sketch -->
    <title>down</title>
    <desc>Created with Sketch.</desc>
    <defs></defs>
    <g id="Svgs" stroke="none" stroke-width="1" fill="none" fill-rule="evenodd" sketch:type="MSPage">
        <g id="down" sketch:type="MSLayerGroup">
            <circle id="iconBorder" stroke-opacity="0" stroke="#444444" sketch:type="MSShapeGroup" cx="15.2263636" cy="15.2263636" r="15.2263636"></circle>
            <path d="M15.0427273,18.1136364 L9.60909091,12.6790909 L10.3263636,11.9618182 L15.0427273,16.6781818 L19.76,11.9618182 L20.4772727,12.6790909 L15.0427273,18.1136364 Z" fill="#343434" sketch:type="MSShapeGroup"></path>
        </g>
        <g id="Slices" sketch:type="MSLayerGroup" transform="translate(-224.000000, -74.000000)"></g>
    </g>
</svg>