<?xml version="1.0" encoding="UTF-8" standalone="no"?>
<svg width="30px" height="30px" viewBox="0 0 30 30" version="1.1" xmlns="http://www.w3.org/2000/svg" xmlns:xlink="http://www.w3.org/1999/xlink" xmlns:sketch="http://www.bohemiancoding.com/sketch/ns">
    <!-- Generator: Sketch 3.0.4 (8054) - http://www.bohemiancoding.com/sketch -->
    <title>home</title>
    <desc>Created with Sketch.</desc>
    <defs></defs>
    <g id="Svgs" stroke="none" stroke-width="1" fill="none" fill-rule="evenodd" sketch:type="MSPage">
        <g id="Home" sketch:type="MSLayerGroup" transform="translate(7.000000, 7.000000)" fill="#343434">
            <path d="M2.89376,2.56 L4.17376,2.56 L4.17376,3.84 L2.89376,5.12 L2.89376,2.56 L2.89376,2.56 Z M8.01376,0 L4.81376,3.2 L4.81376,1.92 L2.25376,1.92 L2.25376,5.76 L0,8.01376 L0.45248,8.46624 L8.01376,0.90496 L15.57504,8.46624 L16.02752,8.01376 L8.01376,0 L8.01376,0 Z" id="Fill-7" sketch:type="MSShapeGroup"></path>
            <path d="M13.12,15.36 L9.92,15.36 L9.92,10.88 L6.08,10.88 L6.08,15.36 L2.88,15.36 L2.88,8.58496 L8,3.46496 L13.12,8.58496 L13.12,15.36 L13.12,15.36 Z M2.24,8.32 L2.24,16 L6.72,16 L6.72,11.52 L9.28,11.52 L9.28,16 L13.76,16 L13.76,8.32 L8,2.56 L2.24,8.32 L2.24,8.32 Z" id="Fill-8" sketch:type="MSShapeGroup"></path>
        </g>
        <g id="Slices" sketch:type="MSLayerGroup" transform="translate(-372.000000, -148.000000)"></g>
    </g>
</svg>