<?xml version="1.0" encoding="UTF-8" standalone="no"?>
<svg width="16px" height="16px" viewBox="0 0 16 16" version="1.1" xmlns="http://www.w3.org/2000/svg" xmlns:xlink="http://www.w3.org/1999/xlink" xmlns:sketch="http://www.bohemiancoding.com/sketch/ns">
    <!-- Generator: Sketch 3.2.2 (9983) - http://www.bohemiancoding.com/sketch -->
    <title>preview_light</title>
    <desc>Created with Sketch.</desc>
    <defs></defs>
    <g id="Page-1" stroke="none" stroke-width="1" fill="none" fill-rule="evenodd" sketch:type="MSPage">
        <g id="Preview_Light" sketch:type="MSLayerGroup" transform="translate(0.000000, 3.000000)" fill="#343434">
            <path d="M7.89718033,9.19405405 C4.78032787,9.19405405 2.89862295,7.20189189 0.751737705,4.86837838 C3.30596721,2.12405405 5.33718033,0.545405405 7.89718033,0.545405405 C10.9282623,0.545405405 13.2970492,2.79756757 15.0596721,4.90054054 C13.3264262,6.76297297 10.9794098,9.19405405 7.89718033,9.19405405 L7.89718033,9.19405405 L7.89718033,9.19405405 L7.89718033,9.19405405 Z M7.89718033,0.00486486486 C5.02085246,0.00486486486 2.7784918,1.86 0.0283278689,4.86783784 C2.39790164,7.43972973 4.38609836,9.73459459 7.89718033,9.73459459 C11.4085246,9.73459459 13.9892459,6.82945946 15.7660328,4.92216216 C13.9472787,2.68810811 11.3662951,0.00486486486 7.89718033,0.00486486486 L7.89718033,0.00486486486 Z" id="Fill-21" sketch:type="MSShapeGroup"></path>
            <path d="M7.89718033,7.57216216 C6.45114754,7.57216216 5.27422951,6.36 5.27422951,4.86972973 C5.27422951,3.37945946 6.45114754,2.1672973 7.89718033,2.1672973 C9.34347541,2.1672973 10.5201311,3.37945946 10.5201311,4.86972973 C10.5201311,6.36 9.34347541,7.57216216 7.89718033,7.57216216 L7.89718033,7.57216216 L7.89718033,7.57216216 L7.89718033,7.57216216 Z M7.89718033,1.62675676 C6.16157377,1.62675676 4.74963934,3.08162162 4.74963934,4.86972973 C4.74963934,6.65783784 6.16157377,8.1127027 7.89718033,8.1127027 C9.63304918,8.1127027 11.0447213,6.65783784 11.0447213,4.86972973 C11.0447213,3.08162162 9.63304918,1.62675676 7.89718033,1.62675676 L7.89718033,1.62675676 Z" id="Fill-22" sketch:type="MSShapeGroup"></path>
            <path d="M7.89718033,6.22108108 C7.17429508,6.22108108 6.58570492,5.61486486 6.58570492,4.86972973 C6.58570492,4.12459459 7.17429508,3.51837838 7.89718033,3.51837838 C8.62032787,3.51837838 9.20865574,4.12459459 9.20865574,4.86972973 C9.20865574,5.61486486 8.62032787,6.22108108 7.89718033,6.22108108 L7.89718033,6.22108108 L7.89718033,6.22108108 L7.89718033,6.22108108 Z M7.89718033,2.97783784 C6.88498361,2.97783784 6.06111475,3.82675676 6.06111475,4.86972973 C6.06111475,5.9127027 6.88498361,6.76162162 7.89718033,6.76162162 C8.90963934,6.76162162 9.7332459,5.9127027 9.7332459,4.86972973 C9.7332459,3.82675676 8.90963934,2.97783784 7.89718033,2.97783784 L7.89718033,2.97783784 Z" id="Fill-23" sketch:type="MSShapeGroup"></path>
        </g>
    </g>
</svg>