<?xml version="1.0" encoding="UTF-8" standalone="no"?>
<svg width="32px" height="32px" viewBox="0 0 32 32" version="1.1" xmlns="http://www.w3.org/2000/svg" xmlns:xlink="http://www.w3.org/1999/xlink" xmlns:sketch="http://www.bohemiancoding.com/sketch/ns">
    <!-- Generator: Sketch 3.0.4 (8054) - http://www.bohemiancoding.com/sketch -->
    <title>submit</title>
    <desc>Created with Sketch.</desc>
    <defs></defs>
    <g id="Svgs" stroke="none" stroke-width="1" fill="none" fill-rule="evenodd" sketch:type="MSPage">
        <g id="submit" sketch:type="MSLayerGroup" transform="translate(1.000000, 0.000000)">
            <circle id="iconBorder" stroke-opacity="0" stroke="#444444" sketch:type="MSShapeGroup" cx="15.2263636" cy="15.2263636" r="15.2263636"></circle>
            <path d="M8.51272727,14.8118182 L12.9936364,19.3909091 L21.5736364,10.6836364" id="Shape" stroke="#29AB87" sketch:type="MSShapeGroup"></path>
        </g>
        <g id="Slices" sketch:type="MSLayerGroup" transform="translate(-297.000000, -222.000000)"></g>
    </g>
</svg>