<?xml version="1.0" encoding="UTF-8" standalone="no"?>
<svg width="31px" height="31px" viewBox="0 0 31 31" version="1.1" xmlns="http://www.w3.org/2000/svg" xmlns:xlink="http://www.w3.org/1999/xlink" xmlns:sketch="http://www.bohemiancoding.com/sketch/ns">
    <!-- Generator: Sketch 3.0.4 (8054) - http://www.bohemiancoding.com/sketch -->
    <title>type</title>
    <desc>Created with Sketch.</desc>
    <defs></defs>
    <g id="Svgs" stroke="none" stroke-width="1" fill="none" fill-rule="evenodd" sketch:type="MSPage">
        <g id="type" sketch:type="MSLayerGroup">
            <circle id="iconBorder" stroke-opacity="0" stroke="#444444" sketch:type="MSShapeGroup" cx="15.2263636" cy="15.2263636" r="15.2263636"></circle>
            <path d="M7.45818182,19.0909091 L6.23636364,19.0909091 L10.7163636,8.79272727 L11.7345455,8.79272727 L16.2145455,19.0909091 L14.9927273,19.0909091 L13.8581818,16.3854545 L8.59272727,16.3854545 L7.45818182,19.0909091 Z M8.98545455,15.4254545 L13.4509091,15.4254545 L11.2254545,10.0145455 L8.98545455,15.4254545 Z M21.6254545,14.9163636 L21.6254545,14.7418182 C21.6254545,13.568479 21.0436422,12.9818182 19.88,12.9818182 C19.0848445,12.9818182 18.3915181,13.2484822 17.8,13.7818182 L17.2181818,13.0981818 C17.858185,12.4387846 18.8181754,12.1090909 20.0981818,12.1090909 C20.4278804,12.1090909 20.745453,12.1575753 21.0509091,12.2545455 C21.3563652,12.3515156 21.6206049,12.4993929 21.8436364,12.6981818 C22.0666678,12.8969707 22.2460599,13.1466652 22.3818182,13.4472727 C22.5175764,13.7478803 22.5854545,14.1066646 22.5854545,14.5236364 L22.5854545,17.5636364 C22.5854545,17.8254559 22.5975756,18.0993925 22.6218182,18.3854545 C22.6460607,18.6715166 22.6727271,18.9066657 22.7018182,19.0909091 L21.7709091,19.0909091 C21.741818,18.9260598 21.7200001,18.7466676 21.7054545,18.5527273 C21.690909,18.3587869 21.6836364,18.1696979 21.6836364,17.9854545 L21.6545455,17.9854545 C21.3733319,18.4412144 21.041214,18.7684839 20.6581818,18.9672727 C20.2751496,19.1660616 19.8072755,19.2654545 19.2545455,19.2654545 C18.9539379,19.2654545 18.6630317,19.2242428 18.3818182,19.1418182 C18.1006047,19.0593935 17.8509102,18.9333342 17.6327273,18.7636364 C17.4145444,18.5939385 17.2400007,18.3854558 17.1090909,18.1381818 C16.9781812,17.8909079 16.9127273,17.6024259 16.9127273,17.2727273 C16.9127273,16.7199972 17.0557561,16.2860622 17.3418182,15.9709091 C17.6278802,15.655756 17.9866645,15.4206068 18.4181818,15.2654545 C18.8496991,15.1103023 19.3103006,15.0133335 19.8,14.9745455 C20.2896994,14.9357574 20.7381798,14.9163636 21.1454545,14.9163636 L21.6254545,14.9163636 Z M21.1309091,15.7018182 C20.8884836,15.7018182 20.5854564,15.7139393 20.2218182,15.7381818 C19.85818,15.7624244 19.5090926,15.8206056 19.1745455,15.9127273 C18.8399983,16.0048489 18.5539406,16.1478778 18.3163636,16.3418182 C18.0787867,16.5357585 17.96,16.8024225 17.96,17.1418182 C17.96,17.3648496 18.0060601,17.5563628 18.0981818,17.7163636 C18.1903035,17.8763644 18.3139386,18.0072722 18.4690909,18.1090909 C18.6242432,18.2109096 18.7963627,18.2836361 18.9854545,18.3272727 C19.1745464,18.3709093 19.3660596,18.3927273 19.56,18.3927273 C19.9090927,18.3927273 20.2121199,18.334546 20.4690909,18.2181818 C20.7260619,18.1018176 20.9418173,17.9442434 21.1163636,17.7454545 C21.29091,17.5466657 21.4193935,17.3139407 21.5018182,17.0472727 C21.5842428,16.7806047 21.6254545,16.4969712 21.6254545,16.1963636 L21.6254545,15.7018182 L21.1309091,15.7018182 Z" id="Aa" fill="#343434" sketch:type="MSShapeGroup"></path>
        </g>
        <g id="Slices" sketch:type="MSLayerGroup" transform="translate(-76.000000, -370.000000)"></g>
    </g>
</svg>